{
    "m_GameObject": {
        "m_FileID": 0,
        "m_PathID": 0
    },
    "m_Enabled": 1,
    "m_Script": {
        "m_FileID": 0,
        "m_PathID": 5812833946668022119
    },
    "m_Name": "alch_cap",
    "Normal": {
        "m_FileID": 0,
        "m_PathID": -3672142010894825066
    },
    "Smile": {
        "m_FileID": 0,
        "m_PathID": -2694490108534012011
    },
    "Sad": {
        "m_FileID": 0,
        "m_PathID": -3835340611778826431
    },
    "Angry": {
        "m_FileID": 0,
        "m_PathID": 6435994991400268498
    }
}