{
    "m_GameObject": {
        "m_FileID": 0,
        "m_PathID": 0
    },
    "m_Enabled": 1,
    "m_Script": {
        "m_FileID": 0,
        "m_PathID": -4041471252985220290
    },
    "m_Name": "wpn_huu_fast_02",
    "Targets": [
        {
            "TargetName": "wpn_huu_fast_02_bone01",
            "Kinematic": 0.6499999761581421,
            "Gravity": 0.699999988079071,
            "Length": 2.0,
            "ForwardAxis": 0,
            "Damping": 2.0,
            "Acceleration": 15.0,
            "AngularLimit": 60.0
        },
        {
            "TargetName": "wpn_huu_fast_02_bone02",
            "Kinematic": 0.6499999761581421,
            "Gravity": 0.699999988079071,
            "Length": 2.0,
            "ForwardAxis": 0,
            "Damping": 2.0,
            "Acceleration": 15.0,
            "AngularLimit": 50.0
        },
        {
            "TargetName": "wpn_huu_fast_02_bone03",
            "Kinematic": 0.6499999761581421,
            "Gravity": 0.699999988079071,
            "Length": 2.0,
            "ForwardAxis": 0,
            "Damping": 2.0,
            "Acceleration": 15.0,
            "AngularLimit": 50.0
        },
        {
            "TargetName": "wpn_huu_fast_02_bone04",
            "Kinematic": 0.6499999761581421,
            "Gravity": 0.699999988079071,
            "Length": 5.0,
            "ForwardAxis": 0,
            "Damping": 2.0,
            "Acceleration": 15.0,
            "AngularLimit": 34.0
        }
    ],
    "SkirtTraceTargets": []
}