{
    "m_GameObject": {
        "m_FileID": 0,
        "m_PathID": 0
    },
    "m_Enabled": 1,
    "m_Script": {
        "m_FileID": 0,
        "m_PathID": 5812833946668022119
    },
    "m_Name": "logi_rough_00",
    "Normal": {
        "m_FileID": 0,
        "m_PathID": 1576988633572546569
    },
    "Smile": {
        "m_FileID": 0,
        "m_PathID": -8191430668826677452
    },
    "Sad": {
        "m_FileID": 0,
        "m_PathID": -3557450546236531150
    },
    "Angry": {
        "m_FileID": 0,
        "m_PathID": 6667126027587625373
    }
}