{
    "m_GameObject": {
        "m_FileID": 0,
        "m_PathID": 0
    },
    "m_Enabled": 1,
    "m_Script": {
        "m_FileID": 0,
        "m_PathID": 5812833946668022119
    },
    "m_Name": "ff15_glad",
    "Normal": {
        "m_FileID": 0,
        "m_PathID": -6910271013291430662
    },
    "Smile": {
        "m_FileID": 0,
        "m_PathID": 3091510404603381053
    },
    "Sad": {
        "m_FileID": 0,
        "m_PathID": -7609544762940747504
    },
    "Angry": {
        "m_FileID": 0,
        "m_PathID": -7175383202281834772
    }
}