{
    "m_GameObject": {
        "m_FileID": 0,
        "m_PathID": 0
    },
    "m_Enabled": 1,
    "m_Script": {
        "m_FileID": 0,
        "m_PathID": 4843320728867073298
    },
    "m_Name": "event",
    "Items": [
        {
            "ID": "001",
            "Sprite": {
                "m_FileID": 0,
                "m_PathID": -6930163159343443258
            }
        },
        {
            "ID": "003",
            "Sprite": {
                "m_FileID": 0,
                "m_PathID": 1472414243431073034
            }
        },
        {
            "ID": "002",
            "Sprite": {
                "m_FileID": 0,
                "m_PathID": 5664492616129181003
            }
        }
    ]
}