{
    "m_GameObject": {
        "m_FileID": 0,
        "m_PathID": 0
    },
    "m_Enabled": 1,
    "m_Script": {
        "m_FileID": 0,
        "m_PathID": 5812833946668022119
    },
    "m_Name": "ff15_aran",
    "Normal": {
        "m_FileID": 0,
        "m_PathID": -2684716088897436154
    },
    "Smile": {
        "m_FileID": 0,
        "m_PathID": -2684716088897436154
    },
    "Sad": {
        "m_FileID": 0,
        "m_PathID": -2684716088897436154
    },
    "Angry": {
        "m_FileID": 0,
        "m_PathID": -2684716088897436154
    }
}