{
    "m_GameObject": {
        "m_FileID": 0,
        "m_PathID": 0
    },
    "m_Enabled": 1,
    "m_Script": {
        "m_FileID": 0,
        "m_PathID": 5812833946668022119
    },
    "m_Name": "ras_sold_ank",
    "Normal": {
        "m_FileID": 0,
        "m_PathID": 814063278723018384
    },
    "Smile": {
        "m_FileID": 0,
        "m_PathID": 814063278723018384
    },
    "Sad": {
        "m_FileID": 0,
        "m_PathID": 814063278723018384
    },
    "Angry": {
        "m_FileID": 0,
        "m_PathID": 814063278723018384
    }
}