{
    "m_GameObject": {
        "m_FileID": 0,
        "m_PathID": 0
    },
    "m_Enabled": 1,
    "m_Script": {
        "m_FileID": 0,
        "m_PathID": 70
    },
    "m_Name": "HomeQuestButtonSprite",
    "Items": [
        {
            "n": "2020may",
            "s": {
                "m_FileID": 28,
                "m_PathID": -6098913956716038789
            }
        },
        {
            "n": "2020june",
            "s": {
                "m_FileID": 16,
                "m_PathID": 5258407824563877896
            }
        }
    ]
}