{
    "m_GameObject": {
        "m_FileID": 0,
        "m_PathID": 0
    },
    "m_Enabled": 1,
    "m_Script": {
        "m_FileID": 0,
        "m_PathID": -4041471252985220290
    },
    "m_Name": "wpn_dais_00",
    "Targets": [
        {
            "TargetName": "wpn_dais_00_bone01",
            "Kinematic": 0.800000011920929,
            "Gravity": 0.10000000149011612,
            "Length": 1.0,
            "ForwardAxis": 0,
            "Damping": 2.0,
            "Acceleration": 15.0,
            "AngularLimit": 82.0
        }
    ],
    "SkirtTraceTargets": []
}