{
    "m_GameObject": {
        "m_FileID": 0,
        "m_PathID": 0
    },
    "m_Enabled": 1,
    "m_Script": {
        "m_FileID": 0,
        "m_PathID": 5812833946668022119
    },
    "m_Name": "dilg",
    "Normal": {
        "m_FileID": 0,
        "m_PathID": 326993087964610778
    },
    "Smile": {
        "m_FileID": 0,
        "m_PathID": 5157345631104626120
    },
    "Sad": {
        "m_FileID": 0,
        "m_PathID": 326993087964610778
    },
    "Angry": {
        "m_FileID": 0,
        "m_PathID": 7370991130256068721
    }
}