{
    "m_GameObject": {
        "m_FileID": 0,
        "m_PathID": 0
    },
    "m_Enabled": 1,
    "m_Script": {
        "m_FileID": 0,
        "m_PathID": 199
    },
    "m_Name": "bg_mdl_top_anniv_balloon",
    "Targets": [
        {
            "TargetName": "addbone_balloon_C001",
            "Kinematic": 0.25,
            "Gravity": 0.009999999776482582,
            "Length": 1.0,
            "ForwardAxis": 2,
            "Damping": 3.0,
            "Acceleration": 15.0,
            "AngularLimit": 1.0
        },
        {
            "TargetName": "addbone_balloon_C002",
            "Kinematic": 0.25,
            "Gravity": 0.009999999776482582,
            "Length": 1.0,
            "ForwardAxis": 2,
            "Damping": 3.0,
            "Acceleration": 15.0,
            "AngularLimit": 2.0
        },
        {
            "TargetName": "addbone_balloon_C003",
            "Kinematic": 0.25,
            "Gravity": 0.009999999776482582,
            "Length": 1.0,
            "ForwardAxis": 2,
            "Damping": 3.0,
            "Acceleration": 15.0,
            "AngularLimit": 3.0
        }
    ],
    "SkirtTraceTargets": []
}