{
    "m_GameObject": {
        "m_FileID": 0,
        "m_PathID": 0
    },
    "m_Enabled": 1,
    "m_Script": {
        "m_FileID": 0,
        "m_PathID": 5812833946668022119
    },
    "m_Name": "alc_ij_kansai",
    "Normal": {
        "m_FileID": 0,
        "m_PathID": 51911420265014536
    },
    "Smile": {
        "m_FileID": 0,
        "m_PathID": 1173865859106296380
    },
    "Sad": {
        "m_FileID": 0,
        "m_PathID": 51911420265014536
    },
    "Angry": {
        "m_FileID": 0,
        "m_PathID": 51911420265014536
    }
}