001	…小僧…逃げられると思うな!!	VO_caesar.caesar_sys_0010
002	!!
003	激しい火花が散り、<br>カイザルの刃をジークが剣で受け止めた
004	父上…!?	VO_dios.dios_sys_0025
005	貴様…!!　ジークか!?	VO_caesar.caesar_sys_0026
006	まさか…カイザルか!?	VO_zeke.zeke_sys_0026
007	フフ…フハハハハ!!<br>念願の時が、ついに訪れた！<br>ギルラク遺跡で貴様を待つ	VO_caesar.caesar_sys_0009
008	…我らが宿怨、その身に受けるがいい!!
