﻿001	ハアアアアアアッ！	VO_dios_3s_dios.dios_battle_0007
002	やった…！	VO_lizbeth.lizbeth_sys_0025
003	…いや
004	…なるほど<br>ようやく現れてくれた、かな	VO_basini.basini_sys_0045
005	託せるかもしれない者が
006	何者だ、お前は…!?	VO_dios_3s_dios.dios_sys_0003
007	第12代ロードマスター・バシーニ
008	…………！
