{
    "m_GameObject": {
        "m_FileID": 0,
        "m_PathID": 0
    },
    "m_Enabled": 1,
    "m_Script": {
        "m_FileID": 0,
        "m_PathID": 5812833946668022119
    },
    "m_Name": "aj3500",
    "Normal": {
        "m_FileID": 0,
        "m_PathID": -395837331228141957
    },
    "Smile": {
        "m_FileID": 0,
        "m_PathID": -395837331228141957
    },
    "Sad": {
        "m_FileID": 0,
        "m_PathID": -395837331228141957
    },
    "Angry": {
        "m_FileID": 0,
        "m_PathID": -395837331228141957
    }
}