{
    "m_GameObject": {
        "m_FileID": 0,
        "m_PathID": 0
    },
    "m_Enabled": 1,
    "m_Script": {
        "m_FileID": 0,
        "m_PathID": 5812833946668022119
    },
    "m_Name": "venus",
    "Normal": {
        "m_FileID": 0,
        "m_PathID": 7825131368628678705
    },
    "Smile": {
        "m_FileID": 0,
        "m_PathID": 7597592559446773301
    },
    "Sad": {
        "m_FileID": 0,
        "m_PathID": 7825131368628678705
    },
    "Angry": {
        "m_FileID": 0,
        "m_PathID": 3971752966507512630
    }
}