{
    "m_GameObject": {
        "m_FileID": 0,
        "m_PathID": 0
    },
    "m_Enabled": 1,
    "m_Script": {
        "m_FileID": 0,
        "m_PathID": 5812833946668022119
    },
    "m_Name": "tamisu",
    "Normal": {
        "m_FileID": 0,
        "m_PathID": 8400704488298073580
    },
    "Smile": {
        "m_FileID": 0,
        "m_PathID": -6118543450468886787
    },
    "Sad": {
        "m_FileID": 0,
        "m_PathID": 9034426038805685383
    },
    "Angry": {
        "m_FileID": 0,
        "m_PathID": 8400704488298073580
    }
}