{
    "m_GameObject": {
        "m_FileID": 0,
        "m_PathID": 0
    },
    "m_Enabled": 1,
    "m_Script": {
        "m_FileID": 0,
        "m_PathID": 5812833946668022119
    },
    "m_Name": "aj4000",
    "Normal": {
        "m_FileID": 0,
        "m_PathID": -8187188486382363703
    },
    "Smile": {
        "m_FileID": 0,
        "m_PathID": -8187188486382363703
    },
    "Sad": {
        "m_FileID": 0,
        "m_PathID": -8187188486382363703
    },
    "Angry": {
        "m_FileID": 0,
        "m_PathID": -8187188486382363703
    }
}