{
    "m_GameObject": {
        "m_FileID": 0,
        "m_PathID": 0
    },
    "m_Enabled": 1,
    "m_Script": {
        "m_FileID": 0,
        "m_PathID": -4041471252985220290
    },
    "m_Name": "wpn_MO_pok_izk_yoroi_00",
    "Targets": [
        {
            "TargetName": "addbone_chain01",
            "Kinematic": 0.25,
            "Gravity": 0.5,
            "Length": 1.0,
            "ForwardAxis": 0,
            "Damping": 2.0,
            "Acceleration": 15.0,
            "AngularLimit": 0.0
        },
        {
            "TargetName": "addbone_chain01D",
            "Kinematic": 0.25,
            "Gravity": 0.5,
            "Length": 1.0,
            "ForwardAxis": 0,
            "Damping": 2.0,
            "Acceleration": 15.0,
            "AngularLimit": 0.0
        }
    ],
    "SkirtTraceTargets": []
}