{
    "m_GameObject": {
        "m_FileID": 0,
        "m_PathID": 0
    },
    "m_Enabled": 1,
    "m_Script": {
        "m_FileID": 0,
        "m_PathID": 522912102410608360
    },
    "m_Name": "LeagueMatch_rank_font",
    "Items": [
        {
            "n": "LeagueMatch_20",
            "s": {
                "m_FileID": 1,
                "m_PathID": 8559849726986645871
            }
        },
        {
            "n": "LeagueMatch_19",
            "s": {
                "m_FileID": 1,
                "m_PathID": -8846235491067949801
            }
        },
        {
            "n": "LeagueMatch_18",
            "s": {
                "m_FileID": 1,
                "m_PathID": -2878135256855397855
            }
        },
        {
            "n": "LeagueMatch_17",
            "s": {
                "m_FileID": 1,
                "m_PathID": -6643139813038815902
            }
        },
        {
            "n": "LeagueMatch_16",
            "s": {
                "m_FileID": 1,
                "m_PathID": 7044592929177042583
            }
        },
        {
            "n": "LeagueMatch_15",
            "s": {
                "m_FileID": 1,
                "m_PathID": 3435244781835116141
            }
        },
        {
            "n": "LeagueMatch_14",
            "s": {
                "m_FileID": 1,
                "m_PathID": 7713283400905397612
            }
        },
        {
            "n": "LeagueMatch_13",
            "s": {
                "m_FileID": 1,
                "m_PathID": -5262981605871329915
            }
        },
        {
            "n": "LeagueMatch_12",
            "s": {
                "m_FileID": 1,
                "m_PathID": -7568705169602308481
            }
        },
        {
            "n": "LeagueMatch_11",
            "s": {
                "m_FileID": 1,
                "m_PathID": 4359541061452541232
            }
        },
        {
            "n": "LeagueMatch_10",
            "s": {
                "m_FileID": 1,
                "m_PathID": -6153424647846970481
            }
        },
        {
            "n": "LeagueMatch_9",
            "s": {
                "m_FileID": 1,
                "m_PathID": -819793136689139467
            }
        },
        {
            "n": "LeagueMatch_8",
            "s": {
                "m_FileID": 1,
                "m_PathID": 1255910184497358119
            }
        },
        {
            "n": "LeagueMatch_7",
            "s": {
                "m_FileID": 1,
                "m_PathID": 3606405343624297533
            }
        },
        {
            "n": "LeagueMatch_6",
            "s": {
                "m_FileID": 1,
                "m_PathID": -9037518571869211722
            }
        },
        {
            "n": "LeagueMatch_5",
            "s": {
                "m_FileID": 1,
                "m_PathID": -6791475454725162638
            }
        },
        {
            "n": "LeagueMatch_4",
            "s": {
                "m_FileID": 1,
                "m_PathID": 7248330413510823251
            }
        },
        {
            "n": "LeagueMatch_3",
            "s": {
                "m_FileID": 1,
                "m_PathID": 5372789770621193279
            }
        },
        {
            "n": "LeagueMatch_2",
            "s": {
                "m_FileID": 1,
                "m_PathID": 5583172746844616735
            }
        },
        {
            "n": "LeagueMatch_1",
            "s": {
                "m_FileID": 1,
                "m_PathID": -3554915057390046989
            }
        }
    ]
}