{
    "m_GameObject": {
        "m_FileID": 0,
        "m_PathID": 0
    },
    "m_Enabled": 1,
    "m_Script": {
        "m_FileID": 0,
        "m_PathID": 522912102410608360
    },
    "m_Name": "LeagueMatch_rank_icon",
    "Items": [
        {
            "n": "LeagueMatch_20",
            "s": {
                "m_FileID": 2,
                "m_PathID": 775103379050478878
            }
        },
        {
            "n": "LeagueMatch_19",
            "s": {
                "m_FileID": 2,
                "m_PathID": 7953275202053320753
            }
        },
        {
            "n": "LeagueMatch_18",
            "s": {
                "m_FileID": 2,
                "m_PathID": -9217948420676211493
            }
        },
        {
            "n": "LeagueMatch_17",
            "s": {
                "m_FileID": 2,
                "m_PathID": 6739435432757037713
            }
        },
        {
            "n": "LeagueMatch_16",
            "s": {
                "m_FileID": 2,
                "m_PathID": -8117815617765480171
            }
        },
        {
            "n": "LeagueMatch_15",
            "s": {
                "m_FileID": 2,
                "m_PathID": 5451481558631846952
            }
        },
        {
            "n": "LeagueMatch_14",
            "s": {
                "m_FileID": 2,
                "m_PathID": -4080569071816361287
            }
        },
        {
            "n": "LeagueMatch_13",
            "s": {
                "m_FileID": 2,
                "m_PathID": 1481084440098904444
            }
        },
        {
            "n": "LeagueMatch_12",
            "s": {
                "m_FileID": 2,
                "m_PathID": -2594674438236984169
            }
        },
        {
            "n": "LeagueMatch_11",
            "s": {
                "m_FileID": 1,
                "m_PathID": -7944776320576772874
            }
        },
        {
            "n": "LeagueMatch_10",
            "s": {
                "m_FileID": 1,
                "m_PathID": -7323203421349518316
            }
        },
        {
            "n": "LeagueMatch_9",
            "s": {
                "m_FileID": 1,
                "m_PathID": -7888573320779975114
            }
        },
        {
            "n": "LeagueMatch_8",
            "s": {
                "m_FileID": 1,
                "m_PathID": 4142900948854803409
            }
        },
        {
            "n": "LeagueMatch_7",
            "s": {
                "m_FileID": 1,
                "m_PathID": -6686026665672608826
            }
        },
        {
            "n": "LeagueMatch_6",
            "s": {
                "m_FileID": 1,
                "m_PathID": 7255729315318667201
            }
        },
        {
            "n": "LeagueMatch_5",
            "s": {
                "m_FileID": 1,
                "m_PathID": -971971074371397622
            }
        },
        {
            "n": "LeagueMatch_4",
            "s": {
                "m_FileID": 1,
                "m_PathID": -8725289385661680396
            }
        },
        {
            "n": "LeagueMatch_3",
            "s": {
                "m_FileID": 1,
                "m_PathID": -1948844803436430229
            }
        },
        {
            "n": "LeagueMatch_2",
            "s": {
                "m_FileID": 3,
                "m_PathID": 8440102580179418293
            }
        },
        {
            "n": "LeagueMatch_1",
            "s": {
                "m_FileID": 3,
                "m_PathID": -5592589290558571616
            }
        }
    ]
}