{
    "m_GameObject": {
        "m_FileID": 0,
        "m_PathID": 0
    },
    "m_Enabled": 1,
    "m_Script": {
        "m_FileID": 0,
        "m_PathID": 4240776042106384978
    },
    "m_Name": "RaidAreaListAssets",
    "RaidStagePointList": [
        {
            "m_FileID": 0,
            "m_PathID": 0
        },
        {
            "m_FileID": 0,
            "m_PathID": 0
        },
        {
            "m_FileID": 1,
            "m_PathID": -8968162723683955944
        },
        {
            "m_FileID": 3,
            "m_PathID": 5791416271356092284
        },
        {
            "m_FileID": 2,
            "m_PathID": -2957373703045235286
        }
    ],
    "RaidAreaBG": [
        "UI/RaidAreaBG01",
        "UI/RaidAreaBG02",
        "UI/RaidAreaBG03"
    ]
}